…
    `summarise()` has grouped output by 'ces_measure'. You can override using the
    `.groups` argument.
    Joining with `by = join_by(holc_grade)`

``` r
missing_summary_all
```

    # A tibble: 25 × 5
    # Groups:   ces_measure [12]
       ces_measure                holc_grade n_missing n_total pct_missing
       <chr>                      <chr>          <int>   <int> <chr>      
     1 calenviroscreen_4_0_score  B                  1     273 0.37%      
     2 calenviroscreen_4_0_score  C                  2     331 0.60%      
     3 drinking_water_score       B                  1     273 0.37%      
     4 education_score            B                  1     273 0.37%      
     5 education_score            C                  1     331 0.30%      
     6 housing_burden_score       B                  1     273 0.37%      
     7 housing_burden_score       C                  2     331 0.60%      
     8 lead_score                 B                  1     273 0.37%      
     9 lead_score                 C                  2     331 0.60%      
    10 linguistic_isolation_score B                  5     273 1.83%      
    # ℹ 15 more rows
…
